M48
; DRILL file {KiCad 7.0.7} date Thu Dec 21 21:42:08 2023
; FORMAT={-:-/ absolute / metric / decimal}
; #@! TF.CreationDate,2023-12-21T21:42:08+09:00
; #@! TF.GenerationSoftware,Kicad,Pcbnew,7.0.7
; #@! TF.FileFunction,NonPlated,1,4,NPTH
FMAT,2
METRIC
; #@! TA.AperFunction,NonPlated,NPTH,ComponentDrill
T1C0.650
%
G90
G05
T1
X37.236Y-32.194
X43.016Y-32.194
T0
M30
